%YAML 1.1
%TAG !u! tag:unity3d.com,2011:
--- !u!1001 &100100000
Prefab:
  m_ObjectHideFlags: 1
  serializedVersion: 2
  m_Modification:
    m_TransformParent: {fileID: 0}
    m_Modifications: []
    m_RemovedComponents: []
  m_ParentPrefab: {fileID: 0}
  m_RootGameObject: {fileID: 1823945193645742}
  m_IsPrefabParent: 1
--- !u!1 &1823945193645742
GameObject:
  m_ObjectHideFlags: 0
  m_PrefabParentObject: {fileID: 0}
  m_PrefabInternal: {fileID: 100100000}
  serializedVersion: 5
  m_Component:
  - component: {fileID: 4325403743901320}
  - component: {fileID: 114361561926830566}
  - component: {fileID: 114622491725258718}
  - component: {fileID: 114467526381953244}
  - component: {fileID: 114065621137384980}
  m_Layer: 0
  m_Name: DiaQ
  m_TagString: Untagged
  m_Icon: {fileID: 0}
  m_NavMeshLayer: 0
  m_StaticEditorFlags: 0
  m_IsActive: 1
--- !u!4 &4325403743901320
Transform:
  m_ObjectHideFlags: 1
  m_PrefabParentObject: {fileID: 0}
  m_PrefabInternal: {fileID: 100100000}
  m_GameObject: {fileID: 1823945193645742}
  m_LocalRotation: {x: 0, y: 0, z: 0, w: 1}
  m_LocalPosition: {x: 0, y: 0, z: 0}
  m_LocalScale: {x: 1, y: 1, z: 1}
  m_Children: []
  m_Father: {fileID: 0}
  m_RootOrder: 0
  m_LocalEulerAnglesHint: {x: 0, y: 0, z: 0}
--- !u!114 &114065621137384980
MonoBehaviour:
  m_ObjectHideFlags: 1
  m_PrefabParentObject: {fileID: 0}
  m_PrefabInternal: {fileID: 100100000}
  m_GameObject: {fileID: 1823945193645742}
  m_Enabled: 1
  m_EditorHideFlags: 0
  m_Script: {fileID: 11500000, guid: 081f6d53188fdbb4186d58ba6fb8c4ee, type: 3}
  m_Name: 
  m_EditorClassIdentifier: 
--- !u!114 &114361561926830566
MonoBehaviour:
  m_ObjectHideFlags: 1
  m_PrefabParentObject: {fileID: 0}
  m_PrefabInternal: {fileID: 100100000}
  m_GameObject: {fileID: 1823945193645742}
  m_Enabled: 1
  m_EditorHideFlags: 0
  m_Script: {fileID: 1383959672, guid: cf68dba5bac504248a9b51bd50391fed, type: 3}
  m_Name: 
  m_EditorClassIdentifier: 
  graphs: []
  metaData: []
  __last_node_id: 0
--- !u!114 &114467526381953244
MonoBehaviour:
  m_ObjectHideFlags: 1
  m_PrefabParentObject: {fileID: 0}
  m_PrefabInternal: {fileID: 100100000}
  m_GameObject: {fileID: 1823945193645742}
  m_Enabled: 1
  m_EditorHideFlags: 0
  m_Script: {fileID: -1940036827, guid: ea7d1836f1e89914ba6ab9fdafc6fe87, type: 3}
  m_Name: 
  m_EditorClassIdentifier: 
  quests: []
  __next_quest_id: 0
--- !u!114 &114622491725258718
MonoBehaviour:
  m_ObjectHideFlags: 1
  m_PrefabParentObject: {fileID: 0}
  m_PrefabInternal: {fileID: 100100000}
  m_GameObject: {fileID: 1823945193645742}
  m_Enabled: 1
  m_EditorHideFlags: 0
  m_Script: {fileID: 256426112, guid: ea7d1836f1e89914ba6ab9fdafc6fe87, type: 3}
  m_Name: 
  m_EditorClassIdentifier: 
  inlineValues: []
