%YAML 1.1
%TAG !u! tag:unity3d.com,2011:
--- !u!114 &11400000
MonoBehaviour:
  m_ObjectHideFlags: 0
  m_PrefabParentObject: {fileID: 0}
  m_PrefabInternal: {fileID: 0}
  m_GameObject: {fileID: 0}
  m_Enabled: 1
  m_EditorHideFlags: 0
  m_Script: {fileID: 769229262, guid: b95a020dc2144a0488a2e34f4bc2d1d5, type: 3}
  m_Name: plyrpg_ed
  m_EditorClassIdentifier: 
  actorFabs: []
