%YAML 1.1
%TAG !u! tag:unity3d.com,2011:
--- !u!1001 &100100000
Prefab:
  m_ObjectHideFlags: 1
  serializedVersion: 2
  m_Modification:
    m_TransformParent: {fileID: 0}
    m_Modifications: []
    m_RemovedComponents: []
  m_ParentPrefab: {fileID: 0}
  m_RootGameObject: {fileID: 1024445086174104}
  m_IsPrefabParent: 1
--- !u!1 &1024445086174104
GameObject:
  m_ObjectHideFlags: 0
  m_PrefabParentObject: {fileID: 0}
  m_PrefabInternal: {fileID: 100100000}
  serializedVersion: 5
  m_Component:
  - component: {fileID: 4956094848574300}
  - component: {fileID: 123561238056408976}
  - component: {fileID: 114557262458308710}
  m_Layer: 0
  m_Name: LensFlare Exp (White)
  m_TagString: Untagged
  m_Icon: {fileID: 0}
  m_NavMeshLayer: 0
  m_StaticEditorFlags: 0
  m_IsActive: 0
--- !u!4 &4956094848574300
Transform:
  m_ObjectHideFlags: 1
  m_PrefabParentObject: {fileID: 0}
  m_PrefabInternal: {fileID: 100100000}
  m_GameObject: {fileID: 1024445086174104}
  m_LocalRotation: {x: 0, y: 0, z: 0, w: 1}
  m_LocalPosition: {x: -18.15, y: 0.19061625, z: -11.416405}
  m_LocalScale: {x: 1, y: 1, z: 1}
  m_Children: []
  m_Father: {fileID: 0}
  m_RootOrder: 0
  m_LocalEulerAnglesHint: {x: 0, y: 0, z: 0}
--- !u!114 &114557262458308710
MonoBehaviour:
  m_ObjectHideFlags: 1
  m_PrefabParentObject: {fileID: 0}
  m_PrefabInternal: {fileID: 100100000}
  m_GameObject: {fileID: 1024445086174104}
  m_Enabled: 1
  m_EditorHideFlags: 0
  m_Script: {fileID: 11500000, guid: b16cd0280670d4f3580a48b878f6e12d, type: 3}
  m_Name: 
  m_EditorClassIdentifier: 
  flare: {fileID: 123561238056408976}
  beginActive: 1
  fadeTime: 0.2
  scaleByDistance: 1
  scaleByHierarchy: 1
  maxDistance: 2000
  brightness: 600
  useCustomCurve: 0
  brightnessCurve:
    serializedVersion: 2
    m_Curve: []
    m_PreInfinity: 2
    m_PostInfinity: 2
    m_RotationOrder: 4
  multiplier: 1
--- !u!123 &123561238056408976
LensFlare:
  m_ObjectHideFlags: 1
  m_PrefabParentObject: {fileID: 0}
  m_PrefabInternal: {fileID: 100100000}
  m_GameObject: {fileID: 1024445086174104}
  m_Enabled: 1
  m_Flare: {fileID: 12100000, guid: fab0b9e816427417a8e8ed97beac1105, type: 2}
  m_Color: {r: 1, g: 1, b: 1, a: 0}
  m_Brightness: 100
  m_FadeSpeed: 5
  m_IgnoreLayers:
    serializedVersion: 2
    m_Bits: 6
  m_Directional: 0
