%YAML 1.1
%TAG !u! tag:unity3d.com,2011:
--- !u!21 &2100000
Material:
  serializedVersion: 3
  m_ObjectHideFlags: 0
  m_PrefabParentObject: {fileID: 0}
  m_PrefabInternal: {fileID: 0}
  m_Name: Checkerboard
  m_Shader: {fileID: 7, guid: 0000000000000000f000000000000000, type: 0}
  m_ShaderKeywords: []
  m_SavedProperties:
    serializedVersion: 2
    m_TexEnvs:
      data:
        first:
          name: _MainTex
        second:
          m_Texture: {fileID: 2800000, guid: dd7217b89cd93c94cb1609eda391ae68, type: 3}
          m_Scale: {x: 10, y: 10}
          m_Offset: {x: 0, y: 0}
    m_Floats: {}
    m_Colors:
      data:
        first:
          name: _Color
        second: {r: 1, g: 1, b: 1, a: 1}
